putta:~/.../Programs$ python3 01AStudDetails.py 

Enter the name of the student : RAMESH
Enter the USN of the student : 1SI22CS036
Enter marks in Subject 1 : 87
Enter marks in Subject 2 : 78
Enter marks in Subject 3 : 65
Student Details
=========================
      Name : RAMESH
       USN : 1SI22CS036
   Marks 1 : 87
   Marks 2 : 78
   Marks 3 : 65
     Total : 230
   Percent : 76.67
=========================

