putta:~/.../Programs$ python3 10StudentClass.py 

Enter student Name : Shivappa
Enter student USN : 1SI22CS065
Enter marks in Subject 1 : 87
Enter marks in Subject 2 : 79
Enter marks in Subject 3 : 92
=================================================================================
                                SCORE CARD DETAILS                               
=================================================================================
           NAME          USN   MARKS1   MARKS2   MARKS3    TOTAL   PERCENTAGE
=================================================================================
       Shivappa   1SI22CS065       87       79       92      258        86.00
=================================================================================

