putta:~/.../Programs$ python3 05WordFreq.py 

Enter the filename : text.txt

===================================================
10 most frequently appearing words with their count
===================================================
the occurs 45 times
of occurs 24 times
party occurs 12 times
part occurs 12 times
a occurs 9 times
and occurs 8 times
second occurs 7 times
to occurs 6 times
shall occurs 6 times
first occurs 5 times

